dump.vcd
$date
	Thu Sep 14 07:04:38 2023
$end
$version
	QuestaSim Version 2021.3
$end
$timescale
	1ns
$end

$scope module uvm_root $end
$upscope $end

$scope module tb $end
$var reg 1 ! clk $end
$var reg 1 " rstn $end

$scope module dut $end
$var parameter 32 # ADDRESS $end
$var parameter 32 $ WIDTH $end
$var parameter 32 % DEPTH $end
$var wire 1 & clk $end
$var wire 1 ' reset $end
$var wire 1 ( wr $end
$var wire 1 ) rd $end
$var wire 1 * data_in [127] $end
$var wire 1 + data_in [126] $end
$var wire 1 , data_in [125] $end
$var wire 1 - data_in [124] $end
$var wire 1 . data_in [123] $end
$var wire 1 / data_in [122] $end
$var wire 1 0 data_in [121] $end
$var wire 1 1 data_in [120] $end
$var wire 1 2 data_in [119] $end
$var wire 1 3 data_in [118] $end
$var wire 1 4 data_in [117] $end
$var wire 1 5 data_in [116] $end
$var wire 1 6 data_in [115] $end
$var wire 1 7 data_in [114] $end
$var wire 1 8 data_in [113] $end
$var wire 1 9 data_in [112] $end
$var wire 1 : data_in [111] $end
$var wire 1 ; data_in [110] $end
$var wire 1 < data_in [109] $end
$var wire 1 = data_in [108] $end
$var wire 1 > data_in [107] $end
$var wire 1 ? data_in [106] $end
$var wire 1 @ data_in [105] $end
$var wire 1 A data_in [104] $end
$var wire 1 B data_in [103] $end
$var wire 1 C data_in [102] $end
$var wire 1 D data_in [101] $end
$var wire 1 E data_in [100] $end
$var wire 1 F data_in [99] $end
$var wire 1 G data_in [98] $end
$var wire 1 H data_in [97] $end
$var wire 1 I data_in [96] $end
$var wire 1 J data_in [95] $end
$var wire 1 K data_in [94] $end
$var wire 1 L data_in [93] $end
$var wire 1 M data_in [92] $end
$var wire 1 N data_in [91] $end
$var wire 1 O data_in [90] $end
$var wire 1 P data_in [89] $end
$var wire 1 Q data_in [88] $end
$var wire 1 R data_in [87] $end
$var wire 1 S data_in [86] $end
$var wire 1 T data_in [85] $end
$var wire 1 U data_in [84] $end
$var wire 1 V data_in [83] $end
$var wire 1 W data_in [82] $end
$var wire 1 X data_in [81] $end
$var wire 1 Y data_in [80] $end
$var wire 1 Z data_in [79] $end
$var wire 1 [ data_in [78] $end
$var wire 1 \ data_in [77] $end
$var wire 1 ] data_in [76] $end
$var wire 1 ^ data_in [75] $end
$var wire 1 _ data_in [74] $end
$var wire 1 ` data_in [73] $end
$var wire 1 a data_in [72] $end
$var wire 1 b data_in [71] $end
$var wire 1 c data_in [70] $end
$var wire 1 d data_in [69] $end
$var wire 1 e data_in [68] $end
$var wire 1 f data_in [67] $end
$var wire 1 g data_in [66] $end
$var wire 1 h data_in [65] $end
$var wire 1 i data_in [64] $end
$var wire 1 j data_in [63] $end
$var wire 1 k data_in [62] $end
$var wire 1 l data_in [61] $end
$var wire 1 m data_in [60] $end
$var wire 1 n data_in [59] $end
$var wire 1 o data_in [58] $end
$var wire 1 p data_in [57] $end
$var wire 1 q data_in [56] $end
$var wire 1 r data_in [55] $end
$var wire 1 s data_in [54] $end
$var wire 1 t data_in [53] $end
$var wire 1 u data_in [52] $end
$var wire 1 v data_in [51] $end
$var wire 1 w data_in [50] $end
$var wire 1 x data_in [49] $end
$var wire 1 y data_in [48] $end
$var wire 1 z data_in [47] $end
$var wire 1 { data_in [46] $end
$var wire 1 | data_in [45] $end
$var wire 1 } data_in [44] $end
$var wire 1 ~ data_in [43] $end
$var wire 1 !! data_in [42] $end
$var wire 1 "! data_in [41] $end
$var wire 1 #! data_in [40] $end
$var wire 1 $! data_in [39] $end
$var wire 1 %! data_in [38] $end
$var wire 1 &! data_in [37] $end
$var wire 1 '! data_in [36] $end
$var wire 1 (! data_in [35] $end
$var wire 1 )! data_in [34] $end
$var wire 1 *! data_in [33] $end
$var wire 1 +! data_in [32] $end
$var wire 1 ,! data_in [31] $end
$var wire 1 -! data_in [30] $end
$var wire 1 .! data_in [29] $end
$var wire 1 /! data_in [28] $end
$var wire 1 0! data_in [27] $end
$var wire 1 1! data_in [26] $end
$var wire 1 2! data_in [25] $end
$var wire 1 3! data_in [24] $end
$var wire 1 4! data_in [23] $end
$var wire 1 5! data_in [22] $end
$var wire 1 6! data_in [21] $end
$var wire 1 7! data_in [20] $end
$var wire 1 8! data_in [19] $end
$var wire 1 9! data_in [18] $end
$var wire 1 :! data_in [17] $end
$var wire 1 ;! data_in [16] $end
$var wire 1 <! data_in [15] $end
$var wire 1 =! data_in [14] $end
$var wire 1 >! data_in [13] $end
$var wire 1 ?! data_in [12] $end
$var wire 1 @! data_in [11] $end
$var wire 1 A! data_in [10] $end
$var wire 1 B! data_in [9] $end
$var wire 1 C! data_in [8] $end
$var wire 1 D! data_in [7] $end
$var wire 1 E! data_in [6] $end
$var wire 1 F! data_in [5] $end
$var wire 1 G! data_in [4] $end
$var wire 1 H! data_in [3] $end
$var wire 1 I! data_in [2] $end
$var wire 1 J! data_in [1] $end
$var wire 1 K! data_in [0] $end
$var reg 1 L! full $end
$var reg 1 M! empty $end
$var reg 128 N! data_out [127:0] $end
$var reg 10 O! wr_ptr [9:0] $end
$var reg 10 P! rd_ptr [9:0] $end
$var reg 10 Q! cur_ptr [9:0] $end
$upscope $end
$upscope $end

$scope begin uvm_pkg $end
$var parameter 32 R! UVM_HDL_MAX_WIDTH $end
$var parameter 32 S! UVM_STREAMBITS $end
$var parameter 32 T! UVM_RADIX $end
$var parameter 32 U! UVM_MACRO_NUMFLAGS $end
$var parameter 32 V! UVM_DEFAULT $end
$var parameter 32 W! UVM_ALL_ON $end
$var parameter 32 X! UVM_FLAGS_ON $end
$var parameter 32 Y! UVM_FLAGS_OFF $end
$var parameter 32 Z! UVM_COPY $end
$var parameter 32 [! UVM_NOCOPY $end
$var parameter 32 \! UVM_COMPARE $end
$var parameter 32 ]! UVM_NOCOMPARE $end
$var parameter 32 ^! UVM_PRINT $end
$var parameter 32 _! UVM_NOPRINT $end
$var parameter 32 `! UVM_RECORD $end
$var parameter 32 a! UVM_NORECORD $end
$var parameter 32 b! UVM_PACK $end
$var parameter 32 c! UVM_NOPACK $end
$var parameter 32 d! UVM_PHYSICAL $end
$var parameter 32 e! UVM_ABSTRACT $end
$var parameter 32 f! UVM_READONLY $end
$var parameter 32 g! UVM_NODEFPRINT $end
$var parameter 32 h! UVM_MACRO_EXTRAS $end
$var parameter 32 i! UVM_FLAGS $end
$var parameter 32 j! UVM_UNPACK $end
$var parameter 32 k! UVM_CHECK_FIELDS $end
$var parameter 32 l! UVM_END_DATA_EXTRA $end
$var parameter 32 m! UVM_START_FUNCS $end
$var parameter 32 n! UVM_SET $end
$var parameter 32 o! UVM_SETINT $end
$var parameter 32 p! UVM_SETOBJ $end
$var parameter 32 q! UVM_SETSTR $end
$var parameter 32 r! UVM_END_FUNCS $end
$var parameter 32 s! UVM_STR_CRC_POLYNOMIAL $end
$var parameter 32 t! UVM_STDOUT $end
$var parameter 32 u! UVM_LINE_WIDTH $end
$var parameter 32 v! UVM_NUM_LINES $end
$var parameter 32 w! UVM_SMALL_STRING $end
$var parameter 32 x! UVM_LARGE_STRING $end
$var reg 1 y! uvm_start_uvm_declarations $end
$var integer 32 z! uvm_global_random_seed $end
$var integer 32 {! UVM_UNBOUNDED_CONNECTIONS $end

$scope function uvm_hdl_check_path $end
$var integer 32 |! uvm_hdl_check_path $end
$upscope $end

$scope function uvm_hdl_deposit $end
$var integer 32 }! uvm_hdl_deposit $end
$var reg 1024 ~! value [1023:0] $end
$upscope $end

$scope function uvm_hdl_force $end
$var integer 32 !" uvm_hdl_force $end
$var reg 1024 "" value [1023:0] $end
$upscope $end

$scope task uvm_hdl_force_time $end
$var reg 1024 #" value [1023:0] $end
$var time 64 $" force_time $end
$upscope $end

$scope function uvm_hdl_release_and_read $end
$var integer 32 %" uvm_hdl_release_and_read $end
$var reg 1024 &" value [1023:0] $end
$upscope $end

$scope function uvm_hdl_release $end
$var integer 32 '" uvm_hdl_release $end
$upscope $end

$scope function uvm_hdl_read $end
$var integer 32 (" uvm_hdl_read $end
$var reg 1024 )" value [1023:0] $end
$upscope $end

$scope function uvm_dpi_get_next_arg_c $end
$var integer 32 *" init $end
$upscope $end

$scope function uvm_dpi_get_tool_name_c $end
$upscope $end

$scope function uvm_dpi_get_tool_version_c $end
$upscope $end

$scope function uvm_dpi_get_next_arg $end
$var integer 32 +" init $end
$upscope $end

$scope function uvm_dpi_get_tool_name $end
$upscope $end

$scope function uvm_dpi_get_tool_version $end
$upscope $end

$scope function uvm_dpi_regcomp $end
$upscope $end

$scope function uvm_dpi_regexec $end
$var integer 32 ," uvm_dpi_regexec $end
$upscope $end

$scope function uvm_dpi_regfree $end
$upscope $end

$scope function uvm_re_match $end
$var integer 32 -" uvm_re_match $end
$upscope $end

$scope function uvm_dump_re_cache $end
$upscope $end

$scope function uvm_glob_to_re $end
$upscope $end

$scope function uvm_revision_string $end
$upscope $end

$scope function uvm_radix_to_string $end
$var integer 32 ." radix $end
$upscope $end

$scope function uvm_instance_scope $end
$var reg 8 /" c [7:0] $end
$var integer 32 0" pos $end
$upscope $end

$scope function uvm_oneway_hash $end
$var integer 32 1" uvm_oneway_hash $end
$var integer 32 2" seed $end
$var reg 1 3" msb $end
$var reg 8 4" current_byte [7:0] $end
$var reg 32 5" crc1 [31:0] $end
$upscope $end

$scope function uvm_create_random_seed $end
$var integer 32 6" uvm_create_random_seed $end
$upscope $end

$scope function uvm_object_value_str $end
$upscope $end

$scope function uvm_leaf_scope $end
$var reg 8 7" scope_separator [7:0] $end
$var reg 8 8" bracket_match [7:0] $end
$var integer 32 9" pos $end
$var integer 32 :" bmatches $end
$upscope $end

$scope function uvm_bitstream_to_string $end
$var reg 4096 ;" value [4095:0] $end
$var integer 32 <" size $end
$var integer 32 =" radix $end
$upscope $end

$scope function uvm_integral_to_string $end
$var reg 64 >" value [63:0] $end
$var integer 32 ?" size $end
$var integer 32 @" radix $end
$upscope $end

$scope function uvm_vector_to_string $end
$var reg 4096 A" value [4095:0] $end
$var integer 32 B" size $end
$var integer 32 C" radix $end
$upscope $end

$scope function uvm_get_array_index_int $end
$var integer 32 D" uvm_get_array_index_int $end
$var reg 1 E" is_wildcard $end
$var integer 32 F" i $end
$upscope $end

$scope function uvm_get_array_index_string $end
$var reg 1 G" is_wildcard $end
$var integer 32 H" i $end
$upscope $end

$scope function uvm_is_array $end
$var reg 1 I" uvm_is_array $end
$upscope $end

$scope function uvm_has_wildcard $end
$upscope $end

$scope function m_uvm_string_queue_join $end
$upscope $end

$scope task run_test $end
$upscope $end

$scope function global_stop_request $end
$upscope $end

$scope function set_global_timeout $end
$var time 64 J" timeout $end
$var reg 1 K" overridable $end
$upscope $end

$scope function set_global_stop_timeout $end
$var time 64 L" timeout $end
$upscope $end

$scope function uvm_get_report_object $end
$upscope $end

$scope function uvm_report_enabled $end
$var integer 32 M" uvm_report_enabled $end
$var integer 32 N" verbosity $end
$var reg 2 O" severity [1:0] $end
$upscope $end

$scope function uvm_report $end
$var reg 2 P" severity [1:0] $end
$var integer 32 Q" verbosity $end
$var integer 32 R" line $end
$var reg 1 S" report_enabled_checked $end
$upscope $end

$scope function m__uvm_report_dpi $end
$var integer 32 T" severity $end
$var integer 32 U" verbosity $end
$var integer 32 V" line $end
$upscope $end

$scope function uvm_report_info $end
$var integer 32 W" verbosity $end
$var integer 32 X" line $end
$var reg 1 Y" report_enabled_checked $end
$upscope $end

$scope function uvm_report_warning $end
$var integer 32 Z" verbosity $end
$var integer 32 [" line $end
$var reg 1 \" report_enabled_checked $end
$upscope $end

$scope function uvm_report_error $end
$var integer 32 ]" verbosity $end
$var integer 32 ^" line $end
$var reg 1 _" report_enabled_checked $end
$upscope $end

$scope function uvm_report_fatal $end
$var integer 32 `" verbosity $end
$var integer 32 a" line $end
$var reg 1 b" report_enabled_checked $end
$upscope $end

$scope function uvm_process_report_message $end
$upscope $end

$scope function uvm_string_to_severity $end
$var reg 1 c" uvm_string_to_severity $end
$var reg 2 d" sev [1:0] $end
$upscope $end

$scope function uvm_string_to_action $end
$upscope $end

$scope function set_config_int $end
$var reg 4096 e" value [4095:0] $end
$upscope $end

$scope function set_config_object $end
$var reg 1 f" clone $end
$upscope $end

$scope function set_config_string $end
$upscope $end

$scope function uvm_is_match $end
$var reg 1 g" uvm_is_match $end
$upscope $end

$scope function uvm_string_to_bits $end
$var reg 115200 h" uvm_string_to_bits [115199:0] $end
$upscope $end

$scope function uvm_bits_to_string $end
$var reg 115200 i" str [115199:0] $end
$upscope $end

$scope task uvm_wait_for_nba_region $end
$var integer 32 j" nba $end
$var integer 32 k" next_nba $end
$upscope $end

$scope function uvm_split_string $end
$upscope $end

$scope function uvm_hdl_concat2string $end
$upscope $end
$upscope $end

$scope begin testbench_sv_unit $end
$upscope $end

$scope begin questa_uvm_pkg $end
$upscope $end

$scope begin std $end
$upscope $end
$enddefinitions $end
#0
$dumpvars
0E"
0G"
0I"
0c"
b0 d"
bx h"
bx i"
bx ~!
bx ""
bx #"
bx &"
bx )"
1y!
13"
b1110001 4"
b1011110111000111101101011000001 5"
bx ;"
bx >"
bx A"
0K"
b0 O"
b0 P"
0S"
1Y"
0\"
0_"
0b"
bx e"
0f"
0g"
0!
0"
xL!
xM!
bx N!
bx O!
bx P!
bx Q!
b10000000000 R!
b1000000000000 S!
b1111000000000000000000000000 T!
b10001 U!
b10101010101 V!
b101010101 W!
b101010101 X!
b0 Y!
b1 Z!
b10 [!
b100 \!
b1000 ]!
b10000 ^!
b100000 _!
b1000000 `!
b10000000 a!
b100000000 b!
b1000000000 c!
b10000000000000 d!
b100000000000000 e!
b1000000000000000 f!
b10000000000000000 g!
b100000000000000000 h!
b100000000000000001 i!
b100000000000000010 j!
b100000000000000011 k!
b100000000000000100 l!
b100000000000000101 m!
b100000000000000110 n!
b100000000000000110 o!
b100000000000000111 p!
b100000000000001000 q!
b100000000000001000 r!
b100110000010001110110110110 s!
b1 t!
b1111000 u!
b1111000 v!
b1110111111 w!
b11100000111111111 x!
b1010 #
b10000000 $
b10000000000 %
b0 ."
b0 7"
b0 8"
b0 9"
b0 :"
b0 D"
b0 F"
b0 H"
b0 |!
b0 }!
b0 !"
b0 %"
b0 '"
b0 ("
b0 *"
b0 +"
b0 ,"
b0 -"
b10101111111110001010110000110 z!
b101110 /"
b111 0"
b1010100001001000011001000100111 1"
b10101111111110001010110000110 2"
b10101011100001101000011110010110 6"
b0 <"
b0 ="
b0 ?"
b0 @"
b0 B"
b0 C"
b0 M"
b111110100 N"
b0 Q"
b0 R"
b0 T"
b0 U"
b0 V"
b11001000 W"
b100010110 X"
b0 Z"
b0 ["
b0 ]"
b0 ^"
b0 `"
b0 a"
b100011 j"
b100011 k"
b11111111111111111111111111111111 {!
bx $"
bx J"
bx L"
0)
0(
0K!
0J!
0I!
0H!
0G!
0F!
0E!
0D!
0C!
0B!
0A!
0@!
0?!
0>!
0=!
0<!
0;!
0:!
09!
08!
07!
06!
05!
04!
03!
02!
01!
00!
0/!
0.!
0-!
0,!
0+!
0*!
0)!
0(!
0'!
0&!
0%!
0$!
0#!
0"!
0!!
0~
0}
0|
0{
0z
0y
0x
0w
0v
0u
0t
0s
0r
0q
0p
0o
0n
0m
0l
0k
0j
0i
0h
0g
0f
0e
0d
0c
0b
0a
0`
0_
0^
0]
0\
0[
0Z
0Y
0X
0W
0V
0U
0T
0S
0R
0Q
0P
0O
0N
0M
0L
0K
0J
0I
0H
0G
0F
0E
0D
0C
0B
0A
0@
0?
0>
0=
0<
0;
0:
09
08
07
06
05
04
03
02
01
00
0/
0.
0-
0,
0+
0*
0'
0&
$end
#5
1!
1&
b100100 k"
b0 O!
b0 P!
b0 N!
b100100 j"
#10
0!
1"
1'
0&
#15
1!
1&
b0 Q!
0L!
1M!
1(
1K!
1J!
1I!
1H!
1G!
1F!
1>!
1=!
19!
16!
15!
14!
13!
11!
1/!
1.!
1+!
1*!
1'!
1$!
1~
1x
1w
1u
1t
1r
1q
1o
1k
1j
1g
1f
1b
1a
1`
1_
1]
1[
1Z
1Y
1V
1U
1T
1O
1N
1L
1I
1H
1F
1C
1A
1@
1<
1:
18
16
15
14
13
12
11
1.
1-
1*
#20
0!
0&
#25
1!
1&
b100101 k"
b1010100001001000011001000101000 6"
b1 O!
b100101 j"
0(
#30
0!
0&
#35
1!
1&
b1 Q!
0M!
1(
0K!
1E!
1D!
1@!
0>!
1;!
17!
06!
04!
12!
01!
10!
1,!
0+!
1)!
1(!
0'!
1&!
0$!
1!!
0~
1}
1{
1v
1m
1l
1i
0f
1e
1d
0b
0a
0_
1^
0]
1\
0Z
1X
1W
1S
1Q
1P
0O
1M
0L
1K
1J
0I
0H
0F
1E
1D
1?
0<
0:
19
17
05
04
02
01
10
1/
0.
0-
1,
1+
0*
#40
0!
0&
#45
1!
1&
b100110 k"
b1010100001001000011001000101010 6"
b10 O!
b100110 j"
0(
#50
0!
0&
#55
1!
1&
b10 Q!
1(
0J!
0H!
0G!
0F!
0E!
0D!
1?!
1>!
0=!
1<!
0;!
18!
07!
05!
14!
11!
0/!
1-!
0*!
0(!
1'!
0&!
1%!
1$!
1"!
0!!
0{
1z
0x
0v
0r
0q
1n
0j
1h
0g
1f
0e
0d
1c
1b
1a
0`
1]
1Z
0W
0V
0U
0S
1R
0P
0N
1L
0K
0J
1G
1F
0E
0C
1B
0A
0@
0?
1>
1:
07
06
15
14
03
12
11
1-
1*
#60
0!
0&
#65
1!
1&
b100111 k"
b1010100001001000011001000101101 6"
b11 O!
b100111 j"
0(
#70
0!
0&
#75
1!
1&
b11 Q!
1(
1K!
1J!
1G!
1E!
1D!
1B!
1A!
0@!
0>!
1=!
0<!
1:!
09!
16!
03!
02!
01!
00!
0,!
1+!
1&!
0%!
0"!
1~
1{
0w
1v
0u
1q
1p
0o
0n
0m
0l
0k
1j
0i
1g
0f
1e
0b
1`
1_
0^
0[
0Z
0X
1W
1V
1U
0T
0R
0L
1K
1I
1H
0G
0F
1E
0D
0B
0>
1=
08
01
00
0-
0+
#80
0!
0&
#85
1!
1&
b101000 k"
b1010100001001000011001000110001 6"
b100 O!
b101000 j"
0(
#90
0!
0&
#95
1!
1&
b100 Q!
1(
0J!
0I!
0G!
0B!
1@!
1>!
1;!
0:!
08!
13!
11!
1/!
0.!
1,!
0+!
1*!
1(!
0'!
0&!
1%!
0$!
1#!
1|
0z
0v
1u
1s
1r
0q
1o
1m
1l
1k
0j
0e
1d
1X
0W
0V
0U
1S
1R
1P
1O
1N
0K
1J
0H
1G
0E
1D
1C
1B
1@
1>
0=
1;
09
05
13
02
10
0/
1.
0,
1+
#100
0!
0&
#105
1!
1&
b101001 k"
b1010100001001000011001000110110 6"
b101 O!
b101001 j"
0(
#110
0!
0&
#115
1!
1&
b101 Q!
1(
1J!
1I!
1H!
1F!
1C!
1B!
0?!
0=!
1<!
0;!
1:!
19!
17!
12!
01!
0/!
0-!
0,!
1+!
0*!
0)!
0(!
1&!
1"!
1!!
0~
0}
0|
1z
1w
0t
0r
1q
0m
0l
0k
1j
0g
0a
1^
0]
0\
1[
1Z
0X
1U
1T
0S
0O
1L
1H
0G
1E
1A
0@
1?
1<
0:
18
17
16
15
04
1-
1,
0+
#120
0!
0&
#125
1!
1&
b101010 k"
b1010100001001000011001000111100 6"
b110 O!
b101010 j"
0(
#130
0!
0&
#135
1!
1&
b110 Q!
1(
0K!
0I!
0H!
0F!
0E!
0D!
0<!
0:!
09!
06!
03!
10!
1,!
1(!
1'!
1$!
0"!
1~
0{
0z
0w
1t
0s
1r
0o
1n
1l
1k
0j
1i
0h
0d
0^
0[
0Z
1W
0U
1S
0Q
0P
0N
0M
0L
1K
0H
0E
0C
0B
1@
0>
0<
07
06
05
14
03
12
1/
0,
1+
#140
0!
0&
#145
1!
1&
b101011 k"
b1010100001001000011001001000011 6"
b111 O!
b101011 j"
0(
#150
0!
0&
#155
1!
1&
b111 Q!
1(
1K!
1H!
1F!
0C!
0A!
1?!
1<!
1;!
18!
15!
02!
1/!
1.!
0+!
0%!
0$!
0!!
1}
1{
1y
1x
1w
1v
0u
0t
1s
0p
1o
0n
0i
1e
1^
1\
1Z
1X
1V
1U
0T
1Q
1P
1O
1H
0D
1C
1B
0@
0?
1>
1=
1<
1:
19
17
02
00
0/
0-
1,
#160
0!
0&
#165
1!
1&
b101100 k"
b1010100001001000011001001001011 6"
b1000 O!
b101100 j"
0(
#170
0!
0&
#175
1!
1&
b1000 Q!
1(
0K!
0J!
1I!
0F!
1E!
1C!
0B!
0>!
0<!
05!
13!
12!
0/!
0.!
1+!
1*!
0(!
0'!
1%!
1$!
1!!
0{
1u
1t
0q
1p
1m
0l
0k
1i
1h
1g
1f
1[
0X
0U
0S
0R
1L
0K
0I
0H
1G
1E
1D
0B
0A
1?
0=
08
07
15
04
0,
0+
0*
#180
0!
0&
#185
1!
1&
b101101 k"
b1010100001001000011001001010100 6"
b1001 O!
b101101 j"
0(
#190
0!
0&
#195
1!
1&
b1001 Q!
1(
1J!
0I!
0H!
1A!
1=!
0;!
1:!
16!
15!
04!
02!
11!
00!
1/!
1.!
1-!
0,!
1'!
0&!
0%!
0$!
0#!
1|
0y
0x
0w
0t
0s
0r
1q
0p
1n
0m
1k
1j
0g
0f
0e
1d
0c
1b
1a
0`
0[
0Y
1X
0V
1U
1T
1N
1K
0G
0>
0;
0:
09
16
05
14
12
11
10
1/
0.
1,
#200
0!
0&
#205
1!
1&
b101110 k"
b1010 O!
b101110 j"
0(
#210
0!
b1010100001001000011001001011110 6"
0&
b101111 k"
b101111 j"
#215
1!
1&
b1010 Q!
1)
#220
0!
0&
#225
1!
1&
b110000 k"
b1010100001001000011001001101001 6"
b10011001111110101010001101001011001011000011100111010111100011001100010110110110000010001001001100110101111001000110000000111111 N!
b1 P!
b110000 j"
0)
#230
0!
0&
#235
1!
1&
b1001 Q!
1)
#240
0!
0&
#245
1!
1&
b110001 k"
b1010100001001000011001001110101 6"
b1100110010011110000011101110000110110110111111101101010001101011111010110111110010101000010111010111011010101010100100011111110 N!
b10 P!
b110001 j"
0)
#250
0!
0&
#255
1!
1&
b1000 Q!
1)
#260
0!
0&
#265
1!
1&
b110010 k"
b1010100001001000011001010000010 6"
b11110111101100111000100010101100001100011010001111111001110010110111110000110100100100101101010011101111100011001011100000000100 N!
b11 P!
b110010 j"
0)
#270
0!
0&
#275
1!
1&
b111 Q!
1)
#280
0!
0&
#285
1!
1&
b110011 k"
b1010100001001000011001010010000 6"
b10100100101100011001000000010011010100010001110100110111010101101000001100101000110110001011010101100000101010100101011011010111 N!
b100 P!
b110011 j"
0)
#290
0!
0&
#295
1!
1&
b110 Q!
1)
#300
0!
0&
#305
1!
1&
b110100 k"
b1010100001001000011001010011111 6"
b11001010011000001100101011100101100111111100001100110111011001100111011011110000011110010100111011010101101000010111110011000001 N!
b101 P!
b110100 j"
0)
#310
0!
0&
#315
1!
1&
b101 Q!
1)
#320
0!
0&
#325
1!
1&
b110101 k"
b1010100001001000011001010101111 6"
b10111010010111100110110111110011101110111011000111001110011000101000011101010100110001110110000100000011101101101010111111101111 N!
b110 P!
b110101 j"
0)
#330
0!
0&
#335
1!
1&
b100 Q!
1)
#340
0!
0&
#345
1!
1&
b110110 k"
b1010100001001000011001011000000 6"
b11011110101000100100011100100001110000001110010100000110010000010110101110110000000011011111100110001010100100000010111100000010 N!
b111 P!
b110110 j"
0)
#350
0!
0&
#355
1!
1&
b11 Q!
1)
#360
0!
0&
#365
1!
1&
b110111 k"
b1010100001001000011001011010010 6"
b11101000001001111111100111000011110001111101111110101110010100000110010111001111010110010011100010111000110110011011101000101011 N!
b1000 P!
b110111 j"
0)
#370
0!
0&
#375
1!
1&
b10 Q!
1)
#380
0!
0&
#385
1!
1&
b111000 k"
b1010100001001000011001011100101 6"
b1000000100011110110001110100101001110000110111101110010111110001011011111111000111011110001110001011100110010001100101001100 N!
b1001 P!
b111000 j"
0)
#390
0!
0&
#395
1!
1&
b1 Q!
1)
#400
0!
0&
#405
1!
1&
b111001 k"
b1010100001001000011001011111001 6"
b100111101010000010010001110000111011110011011010101101101000111100110100011000001111000001001101110101011110100101110101000010 N!
b1010 P!
b111001 j"
0)
#410
0!
0&
#415
1!
1&
b0 Q!
1M!
1(
1K!
1I!
0E!
1D!
0C!
1B!
0@!
0?!
1>!
1<!
19!
14!
12!
01!
10!
0.!
0*!
0'!
1$!
1"!
0}
0|
1y
1x
0u
1t
1s
1r
0o
0n
1l
0k
0j
1g
1f
1e
0d
1c
0b
0_
0^
1]
0Z
1Y
0U
0T
1S
1R
0Q
0P
0L
0K
1I
1G
1F
0E
0C
1B
1>
1=
0<
1:
19
18
17
15
13
01
0/
0,
1*
#420
0!
0&
#425
1!
1&
b111010 k"
b1010100001001000011001100001110 6"
b1011 O!
b111010 j"
0(
#430
0!
0&
#435
1!
1&
b1 Q!
0M!
1)
#440
0!
0&
#445
1!
1&
b111011 k"
b1010100001001000011001100100100 6"
b10000010111111111001110010101101100011001100011100110001010111110010000111101011000011101000000101011011111111101110011010000111 N!
b1011 P!
b111011 j"
0)
#450
0!
0&
#455
1!
1&
b0 Q!
1M!
1(
0J!
1E!
0B!
1@!
0<!
0:!
09!
07!
06!
03!
11!
00!
1)!
1(!
1'!
1&!
1%!
1#!
0"!
0!!
0~
1{
1z
1w
1u
0r
0q
1p
1n
1m
0l
0i
0h
0g
0e
1_
0]
0\
1[
1Z
0W
1T
1Q
0O
0N
1M
1L
0F
0B
0?
0=
1<
07
03
00
1/
1-
1,
#460
0!
0&
#465
1!
1&
b111100 k"
b1010100001001000011001100111011 6"
b1100 O!
b111100 j"
0(
#470
0!
0&
#475
1!
1&
b1 Q!
0M!
1)
#480
0!
0&
#485
1!
1&
b111101 k"
b1010100001001000011001101010011 6"
b10110100101110111010100000100101101100011110001111000101010010000001101001111111110000011111110101010110110010000110110011000101 N!
b1100 P!
b111101 j"
0)
#490
0!
0&
#495
1!
1&
b0 Q!
1M!
1(
0I!
0E!
0D!
0@!
1?!
0>!
0=!
1<!
17!
05!
04!
0/!
0-!
1*!
0)!
0$!
1}
1|
0x
0w
1r
0p
1l
1k
1i
1h
1g
0f
0c
1`
0_
1]
0[
0Y
1V
1U
0T
0R
0Q
0L
0J
0I
1E
1C
1B
1A
1?
0>
0<
0:
09
08
17
06
05
02
11
10
#500
0!
0&
#505
1!
1&
b111110 k"
b1010100001001000011001101101100 6"
b1101 O!
b111110 j"
0(
#510
0!
0&
#515
1!
1&
b1 Q!
0M!
1)
#520
0!
0&
#525
1!
1&
b111111 k"
b1010100001001000011001110000110 6"
b10110111001001000000010111110100000100000101101010010011000001110111100011111001111100010111101100000110000110001001010000000001 N!
b1101 P!
b111111 j"
0)
#530
0!
0&
#535
1!
1&
b0 Q!
1M!
1(
0K!
1J!
1I!
1H!
1G!
1F!
1D!
1B!
0?!
1=!
19!
07!
16!
15!
14!
13!
02!
01!
0+!
1)!
0'!
0&!
1$!
0}
0y
1x
1w
0v
0t
0s
1q
1p
1o
1j
0h
1f
1d
1c
1b
1_
0]
1\
0Z
1Y
1T
0S
1Q
1P
1O
1L
1J
0G
1F
0E
0B
0?
1>
1=
1<
18
16
12
01
00
0,
1+
0*
#540
0!
0&
#545
1!
1&
b1000000 k"
b1010100001001000011001110100001 6"
b1110 O!
b1000000 j"
0(
#550
0!
0&
#555
1!
1&
b1 Q!
0M!
1)
#560
0!
0&
#565
1!
1&
b1000001 k"
b1010100001001000011001110111101 6"
b1010100101011100011100101101000101101110011101100100111111011011111111110010110111000011100111000000001111011001100011010111110 N!
b1110 P!
b1000001 j"
0)
#570
0!
0&
#575
1!
1&
b0 Q!
1M!
1(
1K!
0J!
0H!
0F!
1E!
0D!
0B!
0A!
1?!
0<!
09!
08!
06!
05!
10!
0*!
0)!
0(!
1'!
0#!
1!!
0{
1v
1s
0r
0l
0j
0i
0g
1e
0d
0c
0a
0`
0_
1[
1Z
0Y
0X
1W
0V
0T
1S
1R
0P
0O
1N
0C
1B
1@
1?
0>
0<
1;
19
08
06
15
04
11
10
1,
0+
#580
0!
0&
#585
1!
1&
b1000010 k"
b1010100001001000011001111011010 6"
b1111 O!
b1000010 j"
0(
#590
0!
0&
#595
1!
1&
b1 Q!
0M!
1)
#600
0!
0&
#605
1!
1&
b1000011 k"
b1010100001001000011001111111000 6"
b110111100101010101011110101000101110011101010011100000100110000101111101011110101001001101000000001001100000000101000001010101 N!
b1111 P!
b1000011 j"
0)
#610
0!
0&
#615
1!
1&
b0 Q!
1M!
1(
0K!
0I!
0G!
1C!
1<!
18!
17!
04!
12!
11!
00!
1/!
1)!
1(!
0'!
1&!
0%!
0$!
1"!
0!!
1{
0z
1y
0x
0u
0q
0o
0n
1i
1h
1g
0f
0e
1d
1a
1_
1^
0[
0Z
1Y
1X
1V
0U
1T
0R
0M
0L
0J
1I
1H
0F
1E
1C
0B
0A
0?
1<
1:
09
18
07
05
00
1.
0,
1+
#620
0!
0&
#625
1!
1&
b1000100 k"
b1010100001001000011010000010111 6"
b10000 O!
b1000100 j"
0(
#630
0!
0&
#635
1!
1&
b1 Q!
0M!
1)
#640
0!
0&
#645
1!
1&
b1000101 k"
b1010100001001000011010000110111 6"
b1011101100000101111001001110011000010010110111100101101101001110101001001001101011000100010110000010111000110001101000101000000 N!
b10000 P!
b1000101 j"
0)
#650
0!
0&
